Slowniki_do_analizy_sentymentu__Biden.R
…
# Sprawdzenie najczęściej występujących słów
# które rzeczywiście odzwierciedlają treść

# Analiza sentymentu ----

# Analiza sentymentu przy użyciu słownika Loughran ----

# Użycie inner_join()
tidy_tokeny %>%
  inner_join(get_sentiments("loughran"), relationship = "many-to-many")

## Joining with `by = join_by(word)`

## # A tibble: 259 × 3
##     freq word      sentiment  
##    <dbl> <chr>     <chr>      
##  1    34 great     positive   
##  2    12 believe   uncertainty
##  3    11 could     uncertainty
##  4    10 illegal   negative   
##  5     8 almost    uncertainty
##  6     8 good      positive   
##  7     6 beautiful positive   
##  8     6 happy     positive   
##  9     6 highest   positive   
## 10     5 better    positive   
## # ℹ 249 more rows
…
# Zliczanie, które słowa są najczęstsze
# dla danego sentymentu
sentiment_review %>%
  count(word, sentiment) %>%
  arrange(desc(n))

## # A tibble: 199 × 3
##    word    sentiment       n
##    <chr>   <chr>       <int>
##  1 good    positive        4
##  2 believe uncertainty     3
##  3 better  positive        3
##  4 crime   litigious       3
##  5 crime   negative        3
##  6 great   positive        3
##  7 honor   positive        3
##  8 problem negative        3
##  9 ruling  litigious       3
## 10 strong  positive        3
## # ℹ 189 more rows
…
# Zliczanie, które słowa są najczęstsze
# dla danego sentymentu
sentiment_review_nrc %>%
  count(word, sentiment) %>%
  arrange(desc(n))

## # A tibble: 1,147 × 3
##    word   sentiment        n
##    <chr>  <chr>        <int>
##  1 time   anticipation     5
##  2 war    fear             5
##  3 war    negative         5
##  4 good   anticipation     4
##  5 good   joy              4
##  6 good   positive         4
##  7 good   surprise         4
##  8 good   trust            4
##  9 nation trust            4
## 10 baby   joy              3
## # ℹ 1,137 more rows
…
## # A tibble: 2 × 2
##   sentiment     n
##   <chr>     <int>
## 1 negative    198
## 2 positive    222

# Zliczanie, które słowa są najczęstsze
# dla danego sentymentu
sentiment_review_bing %>%
  count(word, sentiment) %>%
  arrange(desc(n))

## # A tibble: 327 × 3
##    word   sentiment     n
##    <chr>  <chr>     <int>
##  1 good   positive      4
##  2 right  positive      4
##  3 well   positive      4
##  4 badly  negative      3
##  5 better positive      3
##  6 crime  negative      3
##  7 dead   negative      3
##  8 death  negative      3
##  9 great  positive      3
## 10 hard   negative      3
## # ℹ 317 more rows
…
# Zliczanie, które słowa są najczęstsze
# dla danego sentymentu
sentiment_review_afinn %>%
  count(word, value) %>%
  arrange(desc(n))

## # A tibble: 299 × 3
##    word      value     n
##    <chr>     <dbl> <int>
##  1 war          -2     5
##  2 good          3     4
##  3 badly        -3     3
##  4 better        2     3
##  5 big           1     3
##  6 crime        -3     3
##  7 dead         -3     3
##  8 death        -2     3
##  9 forgotten    -1     3
## 10 great         3     3
## # ℹ 289 more rows
…
